{"ASL 1.1" : "CLOSED",
      "ASL 2.0" : "CLOSED",
      " and" : " &",
      " or" : " |",
      ", " : " & ",
      "AGPLv3 with exceptions" : "AGPL-3.0",
      "ANTLR PD" : "ANTLR-PD",
      "Artistic 2.0" : "Artistic-2.0",
      "Artistic clarified" : "ClArtistic",
      "Bitstream Vera" : "BitstreamVera",
      "BSD 2 Clause Patent" : "BSD-2-Clause-Patent",
      "BSD 3 Clause" : "BSD-3-Clause",
      "BSD with advertising" : "CLOSED",
      "BSL 1.0" : "BSL-1.0",
      "CC0 1.0" : "CC0-1.0",
      "CC0-1.0" : "CC0-1.0",
      "CC BY SA 1.0" : "CC-BY-SA-1.0",
      "CC BY SA" : "CC-BY-SA-1.0",
      "CC BY" : "CC-BY-1.0",
      "CDDL-1.1" : "CDDL-1.1",
      "CDDL-1.0" : "CDDL-1.0",
      "CDDL 1.0" : "CDDL-1.0",
      "CDDL 1.1" : "CLOSED",
      "CeCILL C" : "CECILL-C",
      "Copyright only" : "CLOSED",
      "EPL 1.0" : "EPL-1.0",
      "EPL 2.0" : "EPL-2.0",
      "EUPL 1.1" : "EUPL-1.1",
      "Freely redistributable without restriction" : "CLOSED",
      "GPL 2.0" : " GPL-2.0",
      "GPL 2.0+" : " GPL-2.0+",
      "GPLv2 with additional permissions" : "GPL-2.0",
      "GPLv2 with exceptions" : "GPL-2.0",
      "GPLv2+ with exceptions" : "GPL-2.0",
      "GPLv3 with exceptions" : "GPL-3.0",
      "GPLv3+ with exceptions" : "GPL-3.0",
      "GPL+ with exceptions" : "GPL-2.0",
      "Inner Net" : "CLOSED",
      "LGPL 2.1 " : "LGPL-2.1 ",
      "LGPL 2.1+ " : "LGPL-2.1 ",
      "LGPLv2 with exceptions" : "LGPL-2.0",
      "LGPLv2+ with exceptions" : "LGPL-2.0",
      "LGPLv3+ with exceptions" : "LGPL-3.0",
      "Licensed only for approved usage, see COPYING for details." : "CLOSED",
      "Open Publication" : "CLOSED",
      "OSL 2.1" : " CLOSED",
      "Public Domain" : "CLOSED",
      "Red Hat Proprietary" : "CLOSED",
      "Redistributable, no modification permitted" : "CLOSED",
      "zlib with acknowledgement" : "Zlib",
      "MPLv1.1" : "MPL-1.1",
      "MPLv2.0" : "MPL-2.0",
      "MPL" : "MPL-1.0",
      "Netscape" : "CLOSED",
      "OpenPBS" : "CLOSED",
      "TORQUEv1.1" : "CLOSED",
      " UCD" : " CLOSED",
      "OFL" : "OFL-1.1",
      "GPLv2+" : "GPL-2.0",
      "GPLv2" : "GPL-2.0",
      "GPL+" : "GPL-2.0",
      "GPLv3+" : "GPL-3.0",
      "GPLv3" : "GPL-3.0",
      "CDDL" : "CDDL-1.0",
      "Lucida" : "CLOSED",
      "GFDL" : "GFDL-1.1",
      "OFSFDL" : "CLOSED",
      "CC-BY-SA-1.0" : "CC-BY-SA-1.0",
      "CC-BY-SA" : "CC-BY-SA-1.0",
      "CC-BY" : "CC-BY-1.0 ",
      "AFL" : "AFL-1.2",
      "LPPL" : "LPPL-1.0",
      "TCL" : "tcl",
      "zlib" : "Zlib",
      "Boost" : "CLOSED",
      "Artistic" : "Artistic-1.0", 
      "CC0" : "CC0-1.0",
      "xinetd" : "CLOSED",
      "IJG" : "CLOSED",
      "CPL" : "CPL-1.0",
      "Python" : "Python-2.0",
      "Unicode": "CLOSED",
      "Romio" : "CLOSED",
      "OpenLDAP" : "CLOSED",
      "DMIT" : "CLOSED",
      "Nmap" : "CLOSED",
      "libtiff" : "CLOSED",
      "wxWidgets" : "CLOSED",
      "IEEE" : "CLOSED",
      "Verbatim" : "CLOSED",
      "Liberation" : "CLOSED",
      "JasPer" : "CLOSED",
      "SISSL" : "CLOSED",
      "ASL2.0" : "CLOSED",
      "gnuplot" : "CLOSED",
      "Afmparse" : "CLOSED",
      "DMTF" : "CLOSED",
      "Distributable" : "CLOSED",
      "AML" : "CLOSED",
      "LGPL2+" : "LGPL-2.0",
      "GPL-2.0+" : "GPL-2.0",
      "GPLV2+" : "GPL-2.0",
      "LGPL-2.1+" : "LGPL-2.1",
      "LGPL-2.0.1+" : "LGPL-2.0", 
      "TTWL" : "CLOSED",
      "FTL" : "CLOSED",
      "Inner-Net" : "CLOSED",
      "Leptonica" : "CLOSED",
      "Sendmail" : "CLOSED",
      "FSFAP" : "CLOSED",
      "LGPL-2.0.1+" : "LGPL-2.0",
      "GPL-2.0" : "GPL-2.0",
      "GPL-2.1" : "GPL-2.1",
      "GPL-3.0" : "GPL-3.0",
      "GPL" : "GPL-2.0",
      "Vim and" : "vim &"
    }
